{
  "Training": [{
    "date": "2023-01-01",
    "url": "char: >\u0001\u0002\u0003\u0004\u0005\u0006\u0007\u0008\u0009<",
    "subjects": [
      ">\u000a\u000b\u000c\u000e\u000f<",
      ">\u0010\u0011\u0012\u0013\u0014\u0015\u0016\u0017<",
      ">\u0018\u0019\u001a\u001b\u001c\u001d\u001e\u001f<",
      ">\u0020\u0021\u0022\u0023\u0024\u0025\u0026\u0027<",
      ">\u0028\u0029\u002a\u002b\u002c\u002d\u002e\u002f<"
    ]
  }],
  "Person": [{
    "family_name": "Steve",
    "given_name": "Stevie",
    "Organisation": "IMF"
  }]
}
