[
    {
        "title": "Dataset",
        "type": "object",
        "patternProperties": {
            "^[0-9]{4,4}": {
                "type": "boolean"
            },
            "^[0-9]{4,4}-[0-9]{2,2}-[0-9]{2,2}": {
                "type": "object",
                "properties": {
                    "date_id": {
                        "type": [
                            "string",
                            "null"
                        ],
                        "pattern": "^[0-9a-f]{8}-[0-9a-f]{4}-[0-9a-f]{4}-[0-9a-f]{4}-[0-9a-f]{12}$"
                    }
                }
            }
        }
    },
    {
        "title": "Dataset2",
        "type": "object",
        "properties": {
            "datetime": {
                "type": "string",
                "format": "date-time"
            }
        },
        "patternProperties": {
            ".*": {
                "title": "Literally anything",
                "type": "object"
            }
        }
    }
]
