{
    "title": "Dataset",
    "description": "",
    "type": "object",
    "properties": {
        "event": {
            "type": "object",
            "properties": {
                "longitude": {
                    "type": "number"
                },
                "latitude": {
                    "type": "number"
                },
                "location": {
                    "type": "string",
                    "description": "geographical location (e.g., North Sea; Espoo, Finland)"
                }
            },
            "required": ["longitude", "latitude"]
        }
    },
    "required": ["event"]
}
