{
    "loan": 12345,
    "box": 2345,
    "first_name": "Anna",
    "last_name": "Lytik",
    "email": "a.lytik@example.com",
    "expected_return_date": "2020-12-24",
    "exhaust_contents": "true",
    "comment": "this is a comment",
    "destination": "blablabla destination",
    "current_location": "blublublub"
}
